04_arithmetics_and_pipelining/dump.vcd
$date
	Thu Jul 31 20:58:35 2025
$end
$version
	Icarus Verilog
$end
$timescale
	1s
$end
$scope module testbench $end
$scope module tb_1 $end
$var event 1 ! finish $end
$var event 1 " all_combination_done $end
$var wire 16 # down_data [15:0] $end
$var wire 1 $ down_vld $end
$var wire 4 % up_vlds [3:0] $end
$var wire 64 & up_data [63:0] $end
$var parameter 32 ' data_ptr_width $end
$var parameter 32 ( n_inputs $end
$var parameter 32 ) width $end
$var reg 1 * clk $end
$var reg 16 + current_data [15:0] $end
$var reg 2 , data_ptr [1:0] $end
$var reg 15 - delays [14:0] $end
$var reg 1 . is_test_fail $end
$var reg 16 / res [15:0] $end
$var reg 16 0 res_expected [15:0] $end
$var reg 4 1 ring_one [3:0] $end
$var reg 1 2 rst $end
$var reg 1 3 running $end
$scope begin input_generator[0] $end
$var parameter 2 4 i $end
$scope module r_delay $end
$var event 1 5 delay_done $end
$var wire 1 * clk $end
$var wire 16 6 data_in [15:0] $end
$var wire 2 7 out_delay [1:0] $end
$var wire 1 2 rst $end
$var wire 1 8 vld_in $end
$var parameter 32 9 delay_width $end
$var parameter 32 : n_inputs $end
$var parameter 32 ; width $end
$var reg 16 < data_lock [15:0] $end
$var reg 16 = data_out [15:0] $end
$var reg 2 > delay [1:0] $end
$var reg 1 ? ready $end
$var reg 1 @ vld_out $end
$upscope $end
$upscope $end
$scope begin input_generator[1] $end
$var parameter 2 A i $end
$scope module r_delay $end
$var event 1 B delay_done $end
$var wire 1 * clk $end
$var wire 16 C data_in [15:0] $end
$var wire 2 D out_delay [1:0] $end
$var wire 1 2 rst $end
$var wire 1 E vld_in $end
$var parameter 32 F delay_width $end
$var parameter 32 G n_inputs $end
$var parameter 32 H width $end
$var reg 16 I data_lock [15:0] $end
$var reg 16 J data_out [15:0] $end
$var reg 2 K delay [1:0] $end
$var reg 1 L ready $end
$var reg 1 M vld_out $end
$upscope $end
$upscope $end
$scope begin input_generator[2] $end
$var parameter 3 N i $end
$scope module r_delay $end
$var event 1 O delay_done $end
$var wire 1 * clk $end
$var wire 16 P data_in [15:0] $end
$var wire 2 Q out_delay [1:0] $end
$var wire 1 2 rst $end
$var wire 1 R vld_in $end
$var parameter 32 S delay_width $end
$var parameter 32 T n_inputs $end
$var parameter 32 U width $end
$var reg 16 V data_lock [15:0] $end
$var reg 16 W data_out [15:0] $end
$var reg 2 X delay [1:0] $end
$var reg 1 Y ready $end
$var reg 1 Z vld_out $end
$upscope $end
$upscope $end
$scope begin input_generator[3] $end
$var parameter 3 [ i $end
$scope module r_delay $end
$var event 1 \ delay_done $end
$var wire 1 * clk $end
$var wire 16 ] data_in [15:0] $end
$var wire 2 ^ out_delay [1:0] $end
$var wire 1 2 rst $end
$var wire 1 _ vld_in $end
$var parameter 32 ` delay_width $end
$var parameter 32 a n_inputs $end
$var parameter 32 b width $end
$var reg 16 c data_lock [15:0] $end
$var reg 16 d data_out [15:0] $end
$var reg 2 e delay [1:0] $end
$var reg 1 f ready $end
$var reg 1 g vld_out $end
$upscope $end
$upscope $end
$scope module DUT $end
$var wire 1 * clk $end
$var wire 16 h down_data [15:0] $end
$var wire 1 $ down_vld $end
$var wire 1 2 rst $end
$var wire 64 i up_data [63:0] $end
$var wire 4 j up_vlds [3:0] $end
$var parameter 32 k n_inputs $end
$var parameter 32 l width $end
$upscope $end
$scope begin $ivl_for_loop0 $end
$var integer 32 m i [31:0] $end
$upscope $end
$scope begin $ivl_for_loop1 $end
$var integer 32 n l [31:0] $end
$upscope $end
$scope task reset $end
$upscope $end
$upscope $end
$scope module tb_2 $end
$var wire 8 o down_data [7:0] $end
$var wire 1 p down_vld $end
$var parameter 32 q TIMEOUT $end
$var parameter 32 r latency_width $end
$var parameter 4 s max_latency $end
$var parameter 4 t max_ptr $end
$var parameter 32 u n_inputs $end
$var parameter 32 v ptr_width $end
$var parameter 32 w width $end
$var reg 1 x clk $end
$var reg 8 y down_data_expected [7:0] $end
$var reg 10 z pending [9:0] $end
$var reg 80 { pending_data [79:0] $end
$var reg 80 | pending_data_for_log [79:0] $end
$var reg 10 } pending_for_log [9:0] $end
$var reg 40 ~ pending_latency [39:0] $end
$var reg 4 !" ptr [3:0] $end
$var reg 1 "" rst $end
$var reg 80 #" up_data [79:0] $end
$var reg 10 $" up_vlds [9:0] $end
$var reg 32 %" counter [31:0] $end
$var reg 32 &" cycle [31:0] $end
$var reg 1 '" was_reset $end
$scope module i_put_in_order $end
$var wire 1 x clk $end
$var wire 8 (" down_data [7:0] $end
$var wire 1 p down_vld $end
$var wire 1 "" rst $end
$var wire 80 )" up_data [79:0] $end
$var wire 10 *" up_vlds [9:0] $end
$var parameter 32 +" n_inputs $end
$var parameter 32 ," width $end
$upscope $end
$scope begin $ivl_for_loop5 $end
$var integer 32 -" i [31:0] $end
$upscope $end
$scope begin $ivl_for_loop6 $end
$var integer 32 ." i [31:0] $end
$upscope $end
$scope task receive $end
$upscope $end
$scope task run $end
$upscope $end
$scope task send $end
$var integer 32 /" n_reps [31:0] $end
$scope begin $ivl_for_loop2 $end
$var integer 32 0" rep [31:0] $end
$scope begin $ivl_for_loop3 $end
$var integer 32 1" i [31:0] $end
$upscope $end
$scope begin $ivl_for_loop4 $end
$var integer 32 2" i [31:0] $end
$upscope $end
$upscope $end
$upscope $end
$upscope $end
$upscope $end
$enddefinitions $end
$comment Show the parameter values. $end
$dumpall
b1000 ,"
b1010 +"
b1000 w
b100 v
b1010 u
b1001 t
b1010 s
b100 r
b10011100010000 q
b10000 l
b100 k
b10000 b
b100 a
b10 `
b11 [
b10000 U
b100 T
b10 S
b10 N
b10000 H
b100 G
b10 F
b1 A
b10000 ;
b100 :
b10 9
b0 4
b10000 )
b100 (
b10 '
$end
#0
$dumpvars
b0 2"
b0 1"
b0 0"
b0 /"
b0 ."
b0 -"
bx *"
bx )"
bz ("
0'"
b0 &"
b0 %"
bx $"
bx #"
x""
bx !"
bx ~
bx }
bx |
bx {
bx z
bx y
0x
zp
bz o
b0 n
b0 m
b0 j
b0 i
bz h
0g
1f
b0 e
b0 d
b0 c
0_
b0 ^
bx ]
1\
0Z
1Y
b0 X
b0 W
b0 V
0R
b0 Q
bx P
1O
0M
1L
b0 K
b0 J
b0 I
0E
b0 D
bx C
1B
0@
1?
b0 >
b0 =
b0 <
08
b0 7
bx 6
15
03
x2
b0 1
bx 0
bx /
x.
b0 -
b0 ,
bx +
0*
b0 &
b0 %
z$
bz #
1"
1!
$end
#500
b1 &"
1x
#1000
0x
#1500
1""
b10 &"
1x
#2000
0x
#2500
1'"
b11 &"
1x
#3000
0x
#3500
bx00000000 |
b1 }
b0 $"
b0 *"
b1010 2"
bx0010 ~
bx00000000 {
b1 %"
b1010 1"
b1 z
b1 !"
b1111101000 /"
0""
b100 &"
b1010 ."
b1010 -"
1x
#4000
0x
#4500
bx0000000100000000 |
b11 }
b1010 2"
b10 !"
bx0000000100000000 {
b10 %"
b11 z
bx00010001 ~
b1010 1"
b101 &"
b1010 ."
b1010 -"
b1 0"
1x
#5000
0x
#5500
bx000000100000000100000000 |
b100 }
bx0000000100000000 #"
bx0000000100000000 )"
b11 $"
b11 *"
b1010 2"
b11 !"
bx000000100000000100000000 {
b11 %"
b100 z
bx011100000000 ~
b1010 1"
b110 &"
b1010 ."
b1010 -"
b10 0"
1x
#6000
0x
#6500
bx00000011000000100000000100000000 |
bx00000011xxxxxxxxxxxxxxxxxxxxxxxx #"
bx00000011xxxxxxxxxxxxxxxxxxxxxxxx )"
b1000 $"
b1000 *"
b1010 2"
b100 !"
bx00000011000000100000000100000000 {
b100 %"
b100 z
bx0000011000000000 ~
b1010 1"
b111 &"
b1010 ."
b1010 -"
b11 0"
1x
#7000
0x
#7500
bx0000010000000011000000100000000100000000 |
b10100 }
bx #"
bx )"
b0 $"
b0 *"
b1010 2"
b101 !"
bx0000010000000011000000100000000100000000 {
b101 %"
b10100 z
bx01010000010100000000 ~
b1010 1"
b1000 &"
b1010 ."
b1010 -"
b100 0"
1x
#8000
0x
#8500
bx000001010000010000000011000000100000000100000000 |
b110100 }
b1010 2"
b110 !"
bx000001010000010000000011000000100000000100000000 {
b110 %"
b110100 z
bx011001000000010000000000 ~
b1010 1"
b1001 &"
b1010 ."
b1010 -"
b101 0"
1x
#9000
0x
#9500
b1010 2"
bx010100110000001100000000 ~
b1010 1"
b1010 &"
b1010 ."
b1010 -"
b110 0"
1x
#10000
0x
#10500
bx00000110000001010000010000000011000000100000000100000000 |
b1110100 }
b1010 2"
b111 !"
bx00000110000001010000010000000011000000100000000100000000 {
b111 %"
b1110100 z
bx1001010000100000001000000000 ~
b1010 1"
b1011 &"
b1010 ."
b1010 -"
b111 0"
1x
#11000
0x
#11500
bx0000011100000110000001010000010000000011000000100000000100000000 |
b11110100 }
b1010 2"
b1000 !"
bx0000011100000110000001010000010000000011000000100000000100000000 {
b1000 %"
b11110100 z
bx00111000001100010000000100000000 ~
b1010 1"
b1100 &"
b1010 ."
b1010 -"
b1000 0"
1x
#12000
0x
#12500
bx000010000000011100000110000001010000010000000011000000100000000100000000 |
b111100000 }
bx00000100xxxxxxxx00000010xxxxxxxxxxxxxxxx #"
bx00000100xxxxxxxx00000010xxxxxxxxxxxxxxxx )"
b10100 $"
b10100 *"
b1010 2"
b1001 !"
bx000010000000011100000110000001010000010000000011000000100000000100000000 {
b1001 %"
b111100000 z
bx100100100111001000000000000000000000 ~
b1010 1"
b1101 &"
b1010 ."
b1010 -"
b1001 0"
1x
#13000
0x
#13500
b1001000010000000011100000110000001010000010000000011000000100000000100000000 |
b1001xxxxxxxxxxxxxxxxxxxxxxxxxxxxxxxxxxxxxxxxxxxxxxxxxxxxxxxxxxxxxxxxxxxxxxxx #"
b1001xxxxxxxxxxxxxxxxxxxxxxxxxxxxxxxxxxxxxxxxxxxxxxxxxxxxxxxxxxxxxxxxxxxxxxxx )"
b1000000000 $"
b1000000000 *"
b1010 2"
b0 !"
b1001000010000000011100000110000001010000010000000011000000100000000100000000 {
b1010 %"
b111100000 z
b100000010110000100000000000000000000 ~
b1010 1"
b1110 &"
b1010 ."
b1010 -"
b1010 0"
1x
#14000
0x
#14500
b1001000010000000011100000110000001010000010000000011000000100000000100001010 |
b101000001 }
bx00000111xxxxxxxx00000101xxxxxxxxxxxxxxxxxxxxxxxxxxxxxxxxxxxxxxxx #"
bx00000111xxxxxxxx00000101xxxxxxxxxxxxxxxxxxxxxxxxxxxxxxxxxxxxxxxx )"
b10100000 $"
b10100000 *"
b1010 2"
b1 !"
b1001000010000000011100000110000001010000010000000011000000100000000100001010 {
b1011 %"
b101000001 z
b11100000101000000000000000000001001 ~
b1010 1"
b1111 &"
b1010 ."
b1010 -"
b1011 0"
1x
#15000
0x
#15500
b1001000010000000011100000110000001010000010000000011000000100000101100001010 |
b101000011 }
bx #"
bx )"
b0 $"
b0 *"
b1010 2"
b10 !"
b1001000010000000011100000110000001010000010000000011000000100000101100001010 {
b1100 %"
b101000011 z
b11000000100000000000000000001001000 ~
b1010 1"
b10000 &"
b1010 ."
b1010 -"
b1100 0"
1x
#16000
0x
#16500
b1001000010000000011100000110000001010000010000000011000011000000101100001010 |
b101000111 }
b1010 2"
b11 !"
b1001000010000000011100000110000001010000010000000011000011000000101100001010 {
b1101 %"
b101000111 z
b10100000011000000000000011000110111 ~
b1010 1"
b10001 &"
b1010 ."
b1010 -"
b1101 0"
1x
#17000
0x
#17500
b1001000010000000011100000110000001010000010000001101000011000000101100001010 |
bx00001101xxxxxxxxxxxxxxxxxxxxxxxx #"
bx00001101xxxxxxxxxxxxxxxxxxxxxxxx )"
b1000 $"
b1000 *"
b1010 2"
b100 !"
b1001000010000000011100000110000001010000010000001101000011000000101100001010 {
b1110 %"
b101000111 z
b10000000010000000000000010100100110 ~
b1010 1"
b10010 &"
b1010 ."
b1010 -"
b1110 0"
1x
#18000
0x
#18500
b1001000010000000011100000110000001010000111000001101000011000000101100001010 |
b101010111 }
bx #"
bx )"
b0 $"
b0 *"
b1010 2"
b101 !"
b1001000010000000011100000110000001010000111000001101000011000000101100001010 {
b1111 %"
b101010111 z
b1100000001000000010000010000010101 ~
b1010 1"
b10011 &"
b1010 ."
b1010 -"
b1111 0"
1x
#19000
0x
#19500
b1001000010000000011100000110000011110000111000001101000011000000101100001010 |
b100100101 }
bx00000110xxxxxxxx00001110xxxxxxxxxxxxxxxx00001011xxxxxxxx #"
bx00000110xxxxxxxx00001110xxxxxxxxxxxxxxxx00001011xxxxxxxx )"
b1010010 $"
b1010010 *"
b1010 2"
b110 !"
b1001000010000000011100000110000011110000111000001101000011000000101100001010 {
b10000 %"
b100100101 z
b1000000000001000000000001100000100 ~
b1010 1"
b10100 &"
b1010 ."
b1010 -"
b10000 0"
1x
#20000
0x
#20500
b1001000010000000011100010000000011110000111000001101000011000000101100001010 |
b101100101 }
bx #"
bx )"
b0 $"
b0 *"
b1010 2"
b111 !"
b1001000010000000011100010000000011110000111000001101000011000000101100001010 {
b10001 %"
b101100101 z
b100001000000100000000001000000011 ~
b1010 1"
b10101 &"
b1010 ."
b1010 -"
b10001 0"
1x
#21000
0x
#21500
b1001000010000001000100010000000011110000111000001101000011000000101100001010 |
b11000101 }
bx00001000xxxxxxxxxxxxxxxx00001111xxxxxxxxxxxxxxxxxxxxxxxxxxxxxxxxxxxxxxxx #"
bx00001000xxxxxxxxxxxxxxxx00001111xxxxxxxxxxxxxxxxxxxxxxxxxxxxxxxxxxxxxxxx )"
b100100000 $"
b100100000 *"
b1010 2"
b1000 !"
b1001000010000001000100010000000011110000111000001101000011000000101100001010 {
b10010 %"
b11000101 z
b100111000000000000000100000010 ~
b1010 1"
b10110 &"
b1010 ."
b1010 -"
b10010 0"
1x
#22000
0x
#22500
b1001000100100001000100010000000011110000111000001101000011000000101100001010 |
b11000001 }
bx00010010xxxxxxxxxxxxxxxxxxxxxxxxxxxxxxxxxxxxxxxx00001100xxxxxxxxxxxxxxxx #"
bx00010010xxxxxxxxxxxxxxxxxxxxxxxxxxxxxxxxxxxxxxxx00001100xxxxxxxxxxxxxxxx )"
b100000100 $"
b100000100 *"
b1010 2"
b1001 !"
b1001000100100001000100010000000011110000111000001101000011000000101100001010 {
b10011 %"
b11000001 z
b10110000000000000000000000001 ~
b1010 1"
b10111 &"
b1010 ."
b1010 -"
b10011 0"
1x
#23000
0x
#23500
b10011000100100001000100010000000011110000111000001101000011000000101100001010 |
b1001000000 }
bx00010001xxxxxxxxxxxxxxxxxxxxxxxxxxxxxxxxxxxxxxxxxxxxxxxx00001010 #"
bx00010001xxxxxxxxxxxxxxxxxxxxxxxxxxxxxxxxxxxxxxxxxxxxxxxx00001010 )"
b10000001 $"
b10000001 *"
b1010 2"
b0 !"
b10011000100100001000100010000000011110000111000001101000011000000101100001010 {
b10100 %"
b1001000000 z
b111000000000101000000000000000000000000 ~
b1010 1"
b11000 &"
b1010 ."
b1010 -"
b10100 0"
1x
#24000
0x
#24500
b10011000100100001000100010000000011110000111000001101000011000000101100010100 |
bx00010100 #"
bx00010100 )"
b1 $"
b1 *"
b1010 2"
b1 !"
b10011000100100001000100010000000011110000111000001101000011000000101100010100 {
b10101 %"
b1001000000 z
b110000000000100000000000000000000000000 ~
b1010 1"
b11001 &"
b1010 ."
b1010 -"
b10101 0"
1x
#25000
0x
#25500
b10011000100100001000100010000000011110000111000001101000011000001010100010100 |
b1001000010 }
bx #"
bx )"
b0 $"
b0 *"
b1010 2"
b10 !"
b10011000100100001000100010000000011110000111000001101000011000001010100010100 {
b10110 %"
b1001000010 z
b101000000000011000000000000000001010000 ~
b1010 1"
b11010 &"
b1010 ."
b1010 -"
b10110 0"
1x
#26000
0x
#26500
b10011000100100001000100010000000011110000111000001101000101100001010100010100 |
b1001000110 }
b1010 2"
b11 !"
b10011000100100001000100010000000011110000111000001101000101100001010100010100 {
b10111 %"
b1001000110 z
b100000000000010000000000000010101000000 ~
b1010 1"
b11011 &"
b1010 ."
b1010 -"
b10111 0"
1x
#27000
0x
#27500
b10011000100100001000100010000000011110000111000010111000101100001010100010100 |
b1001001110 }
b1010 2"
b100 !"
b10011000100100001000100010000000011110000111000010111000101100001010100010100 {
b11000 %"
b1001001110 z
b11000000000001000000000011010000110000 ~
b1010 1"
b11100 &"
b1010 ."
b1010 -"
b11000 0"
1x
#28000
0x
#28500
b10011000100100001000100010000000011110001100000010111000101100001010100010100 |
b1000011110 }
bx00010000xxxxxxxxxxxxxxxxxxxxxxxxxxxxxxxxxxxxxxxxxxxxxxxx #"
bx00010000xxxxxxxxxxxxxxxxxxxxxxxxxxxxxxxxxxxxxxxxxxxxxxxx )"
b1000000 $"
b1000000 *"
b1010 2"
b101 !"
b10011000100100001000100010000000011110001100000010111000101100001010100010100 {
b11001 %"
b1000011110 z
b10000000000000000010010010001100100000 ~
b1010 1"
b11101 &"
b1010 ."
b1010 -"
b11001 0"
1x
#29000
0x
#29500
b10011000100100001000100010000000110010001100000010111000101100001010100010100 |
b1000111110 }
bx #"
bx )"
b0 $"
b0 *"
b1010 2"
b110 !"
b10011000100100001000100010000000110010001100000010111000101100001010100010100 {
b11010 %"
b1000111110 z
b1000000000000011010000001001000010000 ~
b1010 1"
b11110 &"
b1010 ."
b1010 -"
b11010 0"
1x
#30000
0x
#30500
b10011000100100001000100011010000110010001100000010111000101100001010100010100 |
b1110100 }
b10011xxxxxxxxxxxxxxxxxxxxxxxxxxxxxxxxxxxxxxxx00010111xxxxxxxx00010101xxxxxxxx #"
b10011xxxxxxxxxxxxxxxxxxxxxxxxxxxxxxxxxxxxxxxx00010111xxxxxxxx00010101xxxxxxxx )"
b1000001010 $"
b1000001010 *"
b1010 2"
b111 !"
b10011000100100001000100011010000110010001100000010111000101100001010100010100 {
b11011 %"
b1110100 z
b111010101110000000100000000 ~
b1010 1"
b11111 &"
b1010 ."
b1010 -"
b11011 0"
1x
#31000
0x
#31500
b10011000100100001101100011010000110010001100000010111000101100001010100010100 |
b11110000 }
bx00010110xxxxxxxxxxxxxxxx #"
bx00010110xxxxxxxxxxxxxxxx )"
b100 $"
b100 *"
b1010 2"
b1000 !"
b10011000100100001101100011010000110010001100000010111000101100001010100010100 {
b11100 %"
b11110000 z
b10010110010001100000000000000000 ~
b1010 1"
b100000 &"
b1010 ."
b1010 -"
b11100 0"
1x
#32000
0x
#32500
bx #"
bx )"
b0 $"
b0 *"
b1010 2"
b10000101001101010000000000000000 ~
b1010 1"
b100001 &"
b1010 ."
b1010 -"
b11101 0"
1x
#33000
0x
#33500
b1010 2"
b1110100001001000000000000000000 ~
b1010 1"
b100010 &"
b1010 ."
b1010 -"
b11110 0"
1x
#34000
0x
#34500
b1010 2"
b1100011000100110000000000000000 ~
b1010 1"
b100011 &"
b1010 ."
b1010 -"
b11111 0"
1x
#35000
0x
#35500
b10011000111000001101100011010000110010001100000010111000101100001010100010100 |
b111010000 }
bx00011001xxxxxxxxxxxxxxxxxxxxxxxxxxxxxxxxxxxxxxxx #"
bx00011001xxxxxxxxxxxxxxxxxxxxxxxxxxxxxxxxxxxxxxxx )"
b100000 $"
b100000 *"
b1010 2"
b1001 !"
b10011000111000001101100011010000110010001100000010111000101100001010100010100 {
b11101 %"
b111010000 z
b10101010010000000100000000000000000 ~
b1010 1"
b100100 &"
b1010 ."
b1010 -"
b100000 0"
1x
#36000
0x
#36500
b11101000111000001101100011010000110010001100000010111000101100001010100010100 |
b1111010000 }
bx #"
bx )"
b0 $"
b0 *"
b1010 2"
b0 !"
b11101000111000001101100011010000110010001100000010111000101100001010100010100 {
b11110 %"
b1111010000 z
b10010001000001000000010000000000000000 ~
b1010 1"
b100101 &"
b1010 ."
b1010 -"
b100001 0"
1x
#37000
0x
#37500
b11101000111000001101100011010000110010001100000010111000101100001010101001111 |
b1110000001 }
bx00011010xxxxxxxx00011000xxxxxxxxxxxxxxxxxxxxxxxxxxxxxxxx #"
bx00011010xxxxxxxx00011000xxxxxxxxxxxxxxxxxxxxxxxxxxxxxxxx )"
b1010000 $"
b1010000 *"
b1010 2"
b1 !"
b11101000111000001101100011010000110010001100000010111000101100001010101001111 {
b1110000001 z
b1001100110000000000000000000000000001 ~
b1010 1"
b100110 &"
b1010 ."
b1010 -"
b100010 0"
1x
#38000
0x
#38500
b11101000111000001101100011010000110010001100000010111000101100111111001001111 |
b110000010 }
b11101xxxxxxxxxxxxxxxxxxxxxxxxxxxxxxxxxxxxxxxxxxxxxxxxxxxxxxxxxxxxxxxx01001111 #"
b11101xxxxxxxxxxxxxxxxxxxxxxxxxxxxxxxxxxxxxxxxxxxxxxxxxxxxxxxxxxxxxxxx01001111 )"
b1000000001 $"
b1000000001 *"
b1010 2"
b10 !"
b11101000111000001101100011010000110010001100000010111000101100111111001001111 {
b110000010 z
b1000100000000000000000000001010000 ~
b1010 1"
b100111 &"
b1010 ."
b1010 -"
b100011 0"
1x
#39000
0x
#39500
bx #"
bx )"
b0 $"
b0 *"
b1010 2"
b100010000000000000000000001000000 ~
b1010 1"
b101000 &"
b1010 ."
b1010 -"
b100100 0"
1x
#40000
0x
#40500
b10 }
bx0001110000011011xxxxxxxxxxxxxxxxxxxxxxxxxxxxxxxxxxxxxxxxxxxxxxxxxxxxxxxx #"
bx0001110000011011xxxxxxxxxxxxxxxxxxxxxxxxxxxxxxxxxxxxxxxxxxxxxxxxxxxxxxxx )"
b110000000 $"
b110000000 *"
b10 z
b1010 2"
b110000 ~
b1010 1"
b101001 &"
b1010 ."
b1010 -"
b100101 0"
1x
#41000
0x
#41500
b11101000111000001101100011010000110010001100000010111010011000111111001001111 |
b110 }
bx #"
bx )"
b0 $"
b0 *"
b1010 2"
b11 !"
b11101000111000001101100011010000110010001100000010111010011000111111001001111 {
b110 z
b100000100000 ~
b1010 1"
b101010 &"
b1010 ."
b1010 -"
b100110 0"
1x
#42000
0x
#42500
b11101000111000001101100011010000110010001100011111000010011000111111001001111 |
b1110 }
b1010 2"
b100 !"
b11101000111000001101100011010000110010001100011111000010011000111111001001111 {
b1110 z
b11011100010000 ~
b1010 1"
b101011 &"
b1010 ."
b1010 -"
b100111 0"
1x
#43000
0x
#43500
b11101000111000001101100011010000110010101110011111000010011000111111001001111 |
b11100 }
bx01111110xxxxxxxx #"
bx01111110xxxxxxxx )"
b10 $"
b10 *"
b1010 2"
b101 !"
b11101000111000001101100011010000110010101110011111000010011000111111001001111 {
b11100 z
b10010011000000000 ~
b1010 1"
b101100 &"
b1010 ."
b1010 -"
b101000 0"
1x
#44000
0x
#44500
b11101000111000001101100011010010010010101110011111000010011000111111001001111 |
b101100 }
bx01011100xxxxxxxxxxxxxxxxxxxxxxxxxxxxxxxx #"
bx01011100xxxxxxxxxxxxxxxxxxxxxxxxxxxxxxxx )"
b10000 $"
b10000 *"
b1010 2"
b110 !"
b11101000111000001101100011010010010010101110011111000010011000111111001001111 {
b101100 z
b10000000001010100000000 ~
b1010 1"
b101101 &"
b1010 ."
b1010 -"
b101001 0"
1x
#45000
0x
#45500
b11101000111000001101101010001010010010101110011111000010011000111111001001111 |
b1100100 }
bx11111000xxxxxxxxxxxxxxxxxxxxxxxx #"
bx11111000xxxxxxxxxxxxxxxxxxxxxxxx )"
b1000 $"
b1000 *"
b1010 2"
b111 !"
b11101000111000001101101010001010010010101110011111000010011000111111001001111 {
b1100100 z
b111001100000000010000000000 ~
b1010 1"
b101110 &"
b1010 ."
b1010 -"
b101010 0"
1x
#46000
0x
#46500
b11101000111001100001001010001010010010101110011111000010011000111111001001111 |
b11100100 }
bx #"
bx )"
b0 $"
b0 *"
b1010 2"
b1000 !"
b11101000111001100001001010001010010010101110011111000010011000111111001001111 {
b11100100 z
b10000110001000000000001100000000 ~
b1010 1"
b101111 &"
b1010 ."
b1010 -"
b101011 0"
1x
#47000
0x
#47500
b11101001111011100001001010001010010010101110011111000010011000111111001001111 |
b111100100 }
b1010 2"
b1001 !"
b11101001111011100001001010001010010010101110011111000010011000111111001001111 {
b111100100 z
b10101110101000100000000001000000000 ~
b1010 1"
b110000 &"
b1010 ."
b1010 -"
b101100 0"
1x
#48000
0x
#48500
b1101101001111011100001001010001010010010101110011111000010011000111111001001111 |
b1111000100 }
bx01001001xxxxxxxxxxxxxxxxxxxxxxxxxxxxxxxxxxxxxxxx #"
bx01001001xxxxxxxxxxxxxxxxxxxxxxxxxxxxxxxxxxxxxxxx )"
b100000 $"
b100000 *"
b1010 2"
b0 !"
b1101101001111011100001001010001010010010101110011111000010011000111111001001111 {
b1111000100 z
b110010001100100000000000000000100000000 ~
b1010 1"
b110001 &"
b1010 ."
b1010 -"
b101101 0"
1x
#49000
0x
#49500
b1101101001111011100001001010001010010010101110011111000010011000111111011010011 |
b1111000001 }
bx01001100xxxxxxxxxxxxxxxx #"
bx01001100xxxxxxxxxxxxxxxx )"
b100 $"
b100 *"
b1010 2"
b1 !"
b1101101001111011100001001010001010010010101110011111000010011000111111011010011 {
b1111000001 z
b101001101010011000000000000000000000111 ~
b1010 1"
b110010 &"
b1010 ."
b1010 -"
b101110 0"
1x
#50000
0x
#50500
b1101101001111011100001001010001010010010101110011111000010011000101101111010011 |
b1111000011 }
bx #"
bx )"
b0 $"
b0 *"
b1010 2"
b10 !"
b1101101001111011100001001010001010010010101110011111000010011000101101111010011 {
b1111000011 z
b100001001000010000000000000000001100110 ~
b1010 1"
b110011 &"
b1010 ."
b1010 -"
b101111 0"
1x
#51000
0x
#51500
b1101101001111011100001001010001010010010101110011111000001010100101101111010011 |
b1111000111 }
b1010 2"
b11 !"
b1101101001111011100001001010001010010010101110011111000001010100101101111010011 {
b1111000111 z
b11000100110001000000000000011001010101 ~
b1010 1"
b110100 &"
b1010 ."
b1010 -"
b110000 0"
1x
#52000
0x
#52500
b1101101001111011100001001010001010010010101110010001110001010100101101111010011 |
b1010001111 }
bx00111101xxxxxxxx01010001xxxxxxxxxxxxxxxxxxxxxxxxxxxxxxxxxxxxxxxxxxxxxxxx #"
bx00111101xxxxxxxx01010001xxxxxxxxxxxxxxxxxxxxxxxxxxxxxxxxxxxxxxxxxxxxxxxx )"
b101000000 $"
b101000000 *"
b1010 2"
b100 !"
b1101101001111011100001001010001010010010101110010001110001010100101101111010011 {
b1010001111 z
b10000000100000000000000011010101000100 ~
b1010 1"
b110101 &"
b1010 ."
b1010 -"
b110001 0"
1x
#53000
0x
#53500
bx #"
bx )"
b0 $"
b0 *"
b1010 2"
b1000000010000000000000010010000110011 ~
b1010 1"
b110110 &"
b1010 ."
b1010 -"
b110010 0"
1x
#54000
0x
#54500
b1101101001111011100001001010001010010010111001110001110001010100101101111010011 |
b11111 }
b1101101xxxxxxxx11000010xxxxxxxxxxxxxxxxxxxxxxxxxxxxxxxxxxxxxxxxxxxxxxxxxxxxxxxx #"
b1101101xxxxxxxx11000010xxxxxxxxxxxxxxxxxxxxxxxxxxxxxxxxxxxxxxxxxxxxxxxxxxxxxxxx )"
b1010000000 $"
b1010000000 *"
b1010 2"
b101 !"
b1101101001111011100001001010001010010010111001110001110001010100101101111010011 {
b11111 z
b110001001100100010 ~
b1010 1"
b110111 &"
b1010 ."
b1010 -"
b110011 0"
1x
#55000
0x
#55500
b1101101001111011100001001010001101100110111001110001110001010100101101111010011 |
b110111 }
bx10001110xxxxxxxxxxxxxxxxxxxxxxxx #"
bx10001110xxxxxxxxxxxxxxxxxxxxxxxx )"
b1000 $"
b1000 *"
b1010 2"
b110 !"
b1101101001111011100001001010001101100110111001110001110001010100101101111010011 {
b110111 z
b100100000001000010001 ~
b1010 1"
b111000 &"
b1010 ."
b1010 -"
b110100 0"
1x
#56000
0x
#56500
b1101101001111011100001011110111101100110111001110001110001010100101101111010011 |
b1010100 }
bx10110011xxxxxxxxxxxxxxxxxxxxxxxx0101101111010011 #"
bx10110011xxxxxxxxxxxxxxxxxxxxxxxx0101101111010011 )"
b100011 $"
b100011 *"
b1010 2"
b111 !"
b1101101001111011100001011110111101100110111001110001110001010100101101111010011 {
b1010100 z
b11000000010000000100000000 ~
b1010 1"
b111001 &"
b1010 ."
b1010 -"
b110101 0"
1x
#57000
0x
#57500
b1101101001111010101101011110111101100110111001110001110001010100101101111010011 |
b11000000 }
bx01110011xxxxxxxx00101010xxxxxxxxxxxxxxxx #"
bx01110011xxxxxxxx00101010xxxxxxxxxxxxxxxx )"
b10100 $"
b10100 *"
b1010 2"
b1000 !"
b1101101001111010101101011110111101100110111001110001110001010100101101111010011 {
b11000000 z
b1010010000000000000000000000000 ~
b1010 1"
b111010 &"
b1010 ."
b1010 -"
b110110 0"
1x
#58000
0x
#58500
b1101101110110100101101011110111101100110111001110001110001010100101101111010011 |
b111000000 }
bx #"
bx )"
b0 $"
b0 *"
b1010 2"
b1001 !"
b1101101110110100101101011110111101100110111001110001110001010100101101111010011 {
b111000000 z
b101000001000000000000000000000000 ~
b1010 1"
b111011 &"
b1010 ."
b1010 -"
b110111 0"
1x
#59000
0x
#59500
b11011111110110100101101011110111101100110111001110001110001010100101101111010011 |
b1010000000 }
bx11011010xxxxxxxx11110111xxxxxxxxxxxxxxxxxxxxxxxxxxxxxxxxxxxxxxxxxxxxxxxx #"
bx11011010xxxxxxxx11110111xxxxxxxxxxxxxxxxxxxxxxxxxxxxxxxxxxxxxxxxxxxxxxxx )"
b101000000 $"
b101000000 *"
b1010 2"
b0 !"
b11011111110110100101101011110111101100110111001110001110001010100101101111010011 {
b1010000000 z
b111000000110000000000000000000000000000 ~
b1010 1"
b111100 &"
b1010 ."
b1010 -"
b111000 0"
1x
#60000
0x
